<?xml version="1.0" standalone="no"?>
<!DOCTYPE svg PUBLIC "-//W3C//DTD SVG 20010904//EN"
 "http://www.w3.org/TR/2001/REC-SVG-20010904/DTD/svg10.dtd">
<svg version="1.0" xmlns="http://www.w3.org/2000/svg"
 width="700.000000pt" height="700.000000pt" viewBox="0 0 700.000000 700.000000"
 preserveAspectRatio="xMidYMid meet">
<metadata>
Created by potrace 1.11, written by Peter Selinger 2001-2013
</metadata>
<g transform="translate(0.000000,700.000000) scale(0.100000,-0.100000)"
fill="#000000" stroke="none">
<path d="M6880 6889 c-107 -103 -343 -327 -416 -396 -44 -41 -206 -188 -234
-213 -49 -42 -116 -97 -134 -110 -12 -8 -27 -20 -34 -27 -22 -21 -94 -68 -142
-94 -62 -32 -99 -35 -116 -11 -24 35 -122 69 -256 87 -41 6 -246 7 -275 1 -11
-3 -43 -8 -70 -12 -63 -9 -118 -31 -168 -66 -50 -35 -111 -46 -220 -42 -82 3
-253 31 -365 59 -30 8 -66 16 -80 19 -14 2 -56 11 -95 19 -227 48 -363 41
-443 -24 -62 -50 -114 -159 -167 -356 -31 -110 -29 -104 -40 -158 -4 -22 -14
-65 -21 -95 -8 -30 -17 -71 -20 -90 -3 -19 -8 -39 -11 -43 -3 -5 -7 -23 -10
-40 -2 -18 -16 -77 -29 -132 -21 -86 -33 -139 -61 -265 -2 -14 -6 -29 -7 -35
-1 -5 -9 -37 -16 -70 -8 -33 -14 -62 -15 -65 -1 -3 -9 -41 -19 -85 -10 -44
-21 -83 -25 -87 -3 -3 -49 -14 -101 -23 -52 -8 -144 -24 -205 -35 -134 -23
-158 -27 -215 -35 -25 -3 -56 -8 -70 -10 -137 -22 -163 -25 -169 -20 -7 7
-485 472 -591 575 -37 36 -185 180 -330 320 -144 140 -303 295 -353 343 -51
49 -267 261 -481 470 -213 210 -432 424 -485 475 -186 182 -275 267 -267 257
4 -5 236 -241 514 -524 618 -627 921 -937 1133 -1162 24 -26 107 -113 184
-194 77 -81 149 -158 160 -170 11 -12 43 -46 70 -77 28 -30 87 -95 131 -144
177 -193 189 -212 154 -249 -37 -39 -191 -90 -350 -115 -41 -6 -86 -13 -100
-16 -89 -14 -192 -18 -460 -15 -85 1 -164 0 -175 -3 -11 -2 -40 -7 -65 -11
-160 -26 -307 -130 -380 -267 -54 -100 -74 -191 -73 -334 0 -170 48 -317 140
-430 80 -98 128 -241 138 -408 13 -205 20 -254 52 -366 49 -170 85 -238 271
-514 l134 -198 -50 -52 c-27 -28 -71 -73 -97 -101 -26 -27 -127 -133 -224
-234 -97 -101 -196 -204 -220 -230 -24 -25 -116 -122 -206 -216 -178 -186
-238 -249 -364 -382 -46 -48 -136 -142 -199 -208 -64 -66 -141 -147 -171 -180
-55 -59 -55 -59 -7 -15 26 25 74 70 106 100 31 30 104 100 162 155 122 117
468 447 544 520 28 28 159 154 290 280 131 127 256 248 279 270 23 22 85 82
137 133 l95 94 69 -37 c38 -21 92 -50 119 -65 136 -75 171 -94 286 -153 141
-73 360 -160 455 -182 10 -2 55 -13 99 -24 208 -52 313 -69 545 -88 174 -15
601 -7 701 12 13 3 43 7 66 10 331 40 547 103 1058 310 185 75 340 135 344
133 5 -2 152 -143 328 -315 432 -422 488 -477 733 -713 117 -113 247 -238 289
-279 93 -90 188 -179 180 -168 -5 6 -284 297 -464 482 -33 34 -152 158 -265
275 -113 117 -247 256 -298 309 -307 317 -457 474 -460 481 -1 4 43 76 99 161
204 308 226 346 271 444 68 151 105 308 114 480 6 124 10 158 34 249 28 111
60 174 118 239 95 105 123 185 128 362 8 361 -149 601 -431 659 -49 10 -108
13 -195 10 -290 -12 -456 -8 -513 11 -7 2 -28 6 -47 9 -71 10 -198 59 -357
137 -89 45 -165 84 -167 88 -8 13 469 486 558 552 131 99 249 158 349 175 109
19 135 28 204 73 111 73 197 169 256 286 34 67 41 88 66 214 6 29 20 66 31 81
11 15 20 31 20 34 0 20 224 308 324 416 159 172 495 529 629 668 73 75 35 44
-73 -59z m-2630 -1095 c52 -14 160 -40 240 -59 182 -42 238 -63 329 -124 160
-106 281 -269 281 -377 0 -62 -65 -146 -286 -369 -169 -170 -211 -207 -307
-271 -121 -80 -178 -98 -322 -98 -79 0 -223 9 -265 18 -8 1 -37 7 -65 11 -27
5 -52 10 -55 11 -3 1 -15 5 -27 9 -20 6 -26 21 -25 55 0 14 13 119 18 145 25
144 59 326 76 400 11 50 21 97 23 105 51 235 107 446 132 499 18 37 78 70 128
71 17 0 73 -12 125 -26z m-1614 -2458 c239 -51 361 -228 294 -425 -78 -231
-325 -358 -517 -265 -91 44 -157 146 -187 289 -17 79 -15 219 3 278 31 98 117
139 276 133 55 -2 114 -6 131 -10z m2075 -25 c114 -43 163 -141 161 -322 -2
-151 -85 -280 -220 -342 -69 -32 -217 -31 -284 2 -153 74 -249 280 -203 437
36 123 116 199 255 240 64 20 220 11 291 -15z m-2006 -1284 c22 -11 69 -37
105 -58 124 -73 281 -115 520 -138 98 -9 413 -7 480 4 25 4 56 9 70 10 164 18
307 64 429 138 60 36 144 74 166 75 19 1 34 -19 30 -39 -9 -48 -73 -101 -180
-150 -71 -32 -242 -85 -307 -94 -23 -4 -45 -8 -48 -10 -3 -2 -66 -11 -140 -20
-124 -15 -401 -21 -476 -11 -18 3 -63 8 -100 11 -38 4 -71 8 -74 10 -3 2 -24
6 -46 9 -212 32 -454 128 -514 203 -64 82 -21 113 85 60z"/>
</g>
</svg>
